{
  "project_info": {
    "project_number": "442892728141",
    "firebase_url": "https://weatherlogger-8e1e3.firebaseio.com",
    "project_id": "weatherlogger-8e1e3",
    "storage_bucket": "weatherlogger-8e1e3.appspot.com"
  },
  "client": [
    {
      "client_info": {
        "mobilesdk_app_id": "1:442892728141:android:a247a6f4a1a2c45a67e904",
        "android_client_info": {
          "package_name": "com.accenture.weatherlogger"
        }
      },
      "oauth_client": [
        {
          "client_id": "442892728141-j22dp1enoo8u1c4sa72544an0ug5cic5.apps.googleusercontent.com",
          "client_type": 3
        }
      ],
      "api_key": [
        {
          "current_key": "AIzaSyD8xZIZ61Gaxsp18SyO0iS1fGEiMnIJiZo"
        }
      ],
      "services": {
        "appinvite_service": {
          "other_platform_oauth_client": [
            {
              "client_id": "442892728141-j22dp1enoo8u1c4sa72544an0ug5cic5.apps.googleusercontent.com",
              "client_type": 3
            }
          ]
        }
      }
    }
  ],
  "configuration_version": "1"
}